<svg width="7" height="7" viewBox="0 0 7 7" fill="none" xmlns="http://www.w3.org/2000/svg">
<path fill-rule="evenodd" clip-rule="evenodd" d="M4.06784 0.197908C3.91529 0.045359 3.66796 0.045359 3.51541 0.197908C3.36286 0.350456 3.36286 0.597786 3.51541 0.750335L5.58295 2.81787H1.05725C0.841515 2.81787 0.666626 2.99276 0.666626 3.2085C0.666626 3.42423 0.841515 3.59912 1.05725 3.59912H5.58295L3.51541 5.66666C3.36286 5.81921 3.36286 6.06654 3.51541 6.21908C3.66796 6.37163 3.91529 6.37163 4.06784 6.21908L6.80221 3.48471C6.95476 3.33216 6.95476 3.08483 6.80221 2.93228L4.06784 0.197908Z" fill="#C1C1C1"/>
</svg>
