<svg width="60" height="60" viewBox="0 0 60 60" fill="none" xmlns="http://www.w3.org/2000/svg">
<path d="M59 44L45 31L29.5 45.5" stroke="white" stroke-width="2"/>
<path d="M35 51L21 38L1 55" stroke="white" stroke-width="2"/>
<circle cx="17.5" cy="24.5" r="6.5" stroke="white" stroke-width="2"/>
</svg>
