<svg width="60" height="60" viewBox="0 0 60 60" fill="none" xmlns="http://www.w3.org/2000/svg">
<path d="M37 30V21H13V59H37V50" stroke="#749BBF" stroke-width="2"/>
<path fill-rule="evenodd" clip-rule="evenodd" d="M46.7071 32.2929C46.3166 31.9024 45.6834 31.9024 45.2929 32.2929C44.9024 32.6834 44.9024 33.3166 45.2929 33.7071L50.5858 39H39C38.4477 39 38 39.4477 38 40C38 40.5523 38.4477 41 39 41H50.5858L45.2929 46.2929C44.9024 46.6834 44.9024 47.3166 45.2929 47.7071C45.6834 48.0976 46.3166 48.0976 46.7071 47.7071L53.7071 40.7071C54.0976 40.3166 54.0976 39.6834 53.7071 39.2929L46.7071 32.2929Z" fill="#749BBF"/>
</svg>
