<svg width="51" height="42" viewBox="0 0 51 42" fill="none" xmlns="http://www.w3.org/2000/svg">
<rect x="1" y="1" width="49" height="40" rx="3" stroke="#0575DC" stroke-width="2"/>
<line x1="2" y1="14" x2="49.2222" y2="14" stroke="#0575DC" stroke-width="2"/>
<circle cx="43.5" cy="7.5" r="1.5" fill="#0575DC"/>
<circle cx="38.5" cy="7.5" r="1.5" fill="#0575DC"/>
<circle cx="33.5" cy="7.5" r="1.5" fill="#0575DC"/>
</svg>
