<svg width="96" height="50" viewBox="0 0 96 50" fill="none" xmlns="http://www.w3.org/2000/svg">
<circle cx="25" cy="25" r="24" stroke="#2C323E" stroke-width="2"/>
<line x1="50" y1="24" x2="96" y2="24" stroke="#3F4653" stroke-width="2"/>
<line x1="95" y1="23" x2="95" y2="38" stroke="#3F4653" stroke-width="2"/>
<line x1="84" y1="23" x2="84" y2="38" stroke="#3F4653" stroke-width="2"/>
</svg>
