<svg width="60" height="60" viewBox="0 0 60 60" fill="none" xmlns="http://www.w3.org/2000/svg">
<line x1="18" y1="47" x2="18" y2="51" stroke="white" stroke-width="2"/>
<line x1="26" y1="47" x2="26" y2="51" stroke="white" stroke-width="2"/>
<line x1="34" y1="47" x2="34" y2="51" stroke="white" stroke-width="2"/>
<line x1="42" y1="47" x2="42" y2="51" stroke="white" stroke-width="2"/>
<line x1="18" y1="38" x2="18" y2="42" stroke="white" stroke-width="2"/>
<line x1="26" y1="38" x2="26" y2="42" stroke="white" stroke-width="2"/>
<line x1="34" y1="38" x2="34" y2="42" stroke="white" stroke-width="2"/>
<line x1="42" y1="38" x2="42" y2="42" stroke="white" stroke-width="2"/>
<line x1="18" y1="29" x2="18" y2="33" stroke="white" stroke-width="2"/>
<line x1="26" y1="29" x2="26" y2="33" stroke="white" stroke-width="2"/>
<line x1="34" y1="29" x2="34" y2="33" stroke="white" stroke-width="2"/>
<line x1="42" y1="29" x2="42" y2="33" stroke="white" stroke-width="2"/>
<rect x="8" y="21" width="44" height="38" stroke="white" stroke-width="2"/>
</svg>
