<svg width="60" height="60" viewBox="0 0 60 60" fill="none" xmlns="http://www.w3.org/2000/svg">
<path fill-rule="evenodd" clip-rule="evenodd" d="M29 46.917V60H31V46.917C30.6748 46.9716 30.3407 47 30 47C29.6593 47 29.3252 46.9716 29 46.917ZM29 35.083C29.3252 35.0284 29.6593 35 30 35C30.3407 35 30.6748 35.0284 31 35.083V10H29V35.083Z" fill="white"/>
<path fill-rule="evenodd" clip-rule="evenodd" d="M49 33.917V60H51V33.917C50.6748 33.9716 50.3407 34 50 34C49.6593 34 49.3252 33.9716 49 33.917ZM49 22.083C49.3252 22.0284 49.6593 22 50 22C50.3407 22 50.6748 22.0284 51 22.083V10H49V22.083Z" fill="white"/>
<path fill-rule="evenodd" clip-rule="evenodd" d="M9 33.917V60H11V33.917C10.6748 33.9716 10.3407 34 10 34C9.65929 34 9.32521 33.9716 9 33.917ZM9 22.083C9.32521 22.0284 9.65929 22 10 22C10.3407 22 10.6748 22.0284 11 22.083V10H9V22.083Z" fill="white"/>
<circle cx="30" cy="41" r="5" stroke="white" stroke-width="2"/>
<circle cx="50" cy="28" r="5" stroke="white" stroke-width="2"/>
<circle cx="10" cy="28" r="5" stroke="white" stroke-width="2"/>
</svg>
