<svg width="60" height="60" viewBox="0 0 60 60" fill="none" xmlns="http://www.w3.org/2000/svg">
<circle cx="30" cy="35" r="24" stroke="#749BBF" stroke-width="2"/>
<circle cx="30" cy="35" r="4" stroke="#749BBF" stroke-width="2"/>
<path d="M45.0001 35C45.0001 35.6374 44.4835 36.1539 43.8462 36.1539C43.2089 36.1539 42.6924 35.6374 42.6924 35C42.6924 34.3627 43.2089 33.8462 43.8462 33.8462C44.4835 33.8462 45.0001 34.3627 45.0001 35Z" fill="#749BBF"/>
<path d="M41.414 27.0776C40.8623 27.3963 40.673 28.1021 40.9917 28.6538C41.3099 29.2055 42.0162 29.3948 42.5678 29.0761C43.1204 28.7574 43.3084 28.0516 42.9897 27.4999C42.6715 26.9482 41.9666 26.7589 41.414 27.0776Z" fill="#749BBF"/>
<path d="M41.414 42.9223C41.9666 43.241 42.6715 43.0517 42.9897 42.5C43.3084 41.9483 43.1204 41.2425 42.5678 40.9238C42.0162 40.6051 41.3099 40.7944 40.9917 41.3461C40.673 41.8978 40.8623 42.6036 41.414 42.9223Z" fill="#749BBF"/>
<path d="M37.9223 23.5858C38.241 23.0332 38.0517 22.3283 37.5 22.01C36.9483 21.6914 36.2425 21.8793 35.9238 22.4319C35.6051 22.9836 35.7944 23.6899 36.3461 24.0081C36.8978 24.3268 37.6036 24.1375 37.9223 23.5858Z" fill="#749BBF"/>
<path d="M36.3461 45.9917C35.7944 46.3099 35.6051 47.0162 35.9238 47.5678C36.2425 48.1204 36.9483 48.3084 37.5 47.9897C38.0517 47.6715 38.241 46.9666 37.9223 46.414C37.6036 45.8623 36.8978 45.673 36.3461 45.9917Z" fill="#749BBF"/>
<path d="M31.1539 21.1538C31.1539 21.7912 30.6374 22.3077 30 22.3077C29.3627 22.3077 28.8462 21.7912 28.8462 21.1538C28.8462 20.5165 29.3627 20 30 20C30.6374 20 31.1539 20.5165 31.1539 21.1538Z" fill="#749BBF"/>
<path d="M31.1539 48.8462C31.1539 49.4835 30.6374 50.0001 30 50.0001C29.3627 50.0001 28.8462 49.4835 28.8462 48.8462C28.8462 48.2089 29.3627 47.6924 30 47.6924C30.6374 47.6924 31.1539 48.2089 31.1539 48.8462Z" fill="#749BBF"/>
<path d="M23.6539 24.0081C24.2056 23.6899 24.3949 22.9836 24.0762 22.4319C23.7576 21.8793 23.0517 21.6914 22.5001 22.01C21.9484 22.3283 21.7591 23.0332 22.0777 23.5858C22.3964 24.1375 23.1022 24.3268 23.6539 24.0081Z" fill="#749BBF"/>
<path d="M22.0777 46.414C21.7591 46.9666 21.9484 47.6715 22.5001 47.9897C23.0517 48.3084 23.7576 48.1204 24.0762 47.5678C24.3949 47.0162 24.2056 46.3099 23.6539 45.9917C23.1022 45.673 22.3964 45.8623 22.0777 46.414Z" fill="#749BBF"/>
<path d="M18.5859 27.0776C18.0333 26.7589 17.3284 26.9482 17.0102 27.4999C16.6915 28.0516 16.8795 28.7574 17.432 29.0761C17.9837 29.3948 18.69 29.2055 19.0082 28.6538C19.3269 28.1021 19.1376 27.3963 18.5859 27.0776Z" fill="#749BBF"/>
<path d="M17.432 40.9238C16.8795 41.2425 16.6915 41.9483 17.0102 42.5C17.3284 43.0517 18.0333 43.241 18.5859 42.9223C19.1376 42.6036 19.3269 41.8978 19.0082 41.3461C18.69 40.7944 17.9837 40.6051 17.432 40.9238Z" fill="#749BBF"/>
<path d="M17.3077 35C17.3077 35.6374 16.7912 36.1539 16.1538 36.1539C15.5165 36.1539 15 35.6374 15 35C15 34.3627 15.5165 33.8462 16.1538 33.8462C16.7912 33.8462 17.3077 34.3627 17.3077 35Z" fill="#749BBF"/>
</svg>
