<svg width="24" height="24" viewBox="0 0 24 24" fill="none" xmlns="http://www.w3.org/2000/svg">
    <line x1="4.92864" y1="4.25722" x2="20.0355" y2="19.879" stroke="white" stroke-width="3" stroke-linecap="round"/>
    <line x1="20.0355" y1="4.12102" x2="4.92878" y2="19.7426" stroke="white" stroke-width="3" stroke-linecap="round"/>
</svg>